%YAML 1.1
%TAG !u! tag:unity3d.com,2011:
--- !u!1001 &100100000
Prefab:
  m_ObjectHideFlags: 1
  serializedVersion: 2
  m_Modification:
    m_TransformParent: {fileID: 0}
    m_Modifications: []
    m_RemovedComponents: []
  m_SourcePrefab: {fileID: 0}
  m_RootGameObject: {fileID: 1748177075708850}
  m_IsPrefabAsset: 1
--- !u!1 &1748177075708850
GameObject:
  m_ObjectHideFlags: 0
  m_CorrespondingSourceObject: {fileID: 0}
  m_PrefabInternal: {fileID: 100100000}
  serializedVersion: 6
  m_Component:
  - component: {fileID: 4250274581136064}
  - component: {fileID: 114473470910482792}
  m_Layer: 0
  m_Name: GameManager
  m_TagString: Untagged
  m_Icon: {fileID: 0}
  m_NavMeshLayer: 0
  m_StaticEditorFlags: 0
  m_IsActive: 1
--- !u!4 &4250274581136064
Transform:
  m_ObjectHideFlags: 1
  m_CorrespondingSourceObject: {fileID: 0}
  m_PrefabInternal: {fileID: 100100000}
  m_GameObject: {fileID: 1748177075708850}
  m_LocalRotation: {x: 0, y: 0, z: 0, w: 1}
  m_LocalPosition: {x: -0.40135068, y: 0.0054647075, z: 0.064453125}
  m_LocalScale: {x: 1, y: 1, z: 1}
  m_Children: []
  m_Father: {fileID: 0}
  m_RootOrder: 0
  m_LocalEulerAnglesHint: {x: 0, y: 0, z: 0}
--- !u!114 &114473470910482792
MonoBehaviour:
  m_ObjectHideFlags: 1
  m_CorrespondingSourceObject: {fileID: 0}
  m_PrefabInternal: {fileID: 100100000}
  m_GameObject: {fileID: 1748177075708850}
  m_Enabled: 1
  m_EditorHideFlags: 0
  m_Script: {fileID: 11500000, guid: 20a34cbda01039648958fec84e9d5d12, type: 3}
  m_Name: 
  m_EditorClassIdentifier: 
  deadEnemies: 0
  minionsSpawned: 0
  gameIsPaused: 0
  ableToInput: 1
  gameOver: 0
  maxEnemies: 50
  firstLevelMaxEnemies: 30
  moreEnemiesEachLevel: 10
  unlockedMetalBullet: 0
  unlockedThunderBullet: 0
  unlockedWaterBullet: 0
  unlockedFireBullet: 0
  canSpawnBoss2: 0
  canSpawnBoss3: 0
  canSpawnBoss4: 0
  canSpawnBoss5: 0
